<svg xmlns="http://www.w3.org/2000/svg" viewBox="0 0 41.233 12.861">
  <defs>
    <style>
      .cls-1 {
        fill: #422912;
        stroke: #422912;
        stroke-width: 0.7px;
      }
    </style>
  </defs>
  <path id="dessert" class="cls-1" d="M38.972,1.113a3.7,3.7,0,0,0-2.4-1.028,3.563,3.563,0,0,0-2.912,2.055.412.412,0,0,0,.171.514c.171.086.428.086.514-.086a1.48,1.48,0,0,1,1.028-.514,1.722,1.722,0,0,1,1.37,1.113,1.814,1.814,0,0,1,0,1.627,1.51,1.51,0,0,1-1.285.685,4.419,4.419,0,0,1-.942-.171A6.962,6.962,0,0,1,32.12,3.6a12.508,12.508,0,0,0-6-3.511c-.6,0-1.2-.086-1.713-.086a4.838,4.838,0,0,0-4.2,2.055A4.919,4.919,0,0,0,16.019,0a10.493,10.493,0,0,0-1.627.171,11.506,11.506,0,0,0-6,3.511A6.721,6.721,0,0,1,6.085,5.4a4.419,4.419,0,0,1-.942.171,1.409,1.409,0,0,1-1.285-.685,1.8,1.8,0,0,1,0-1.627,1.722,1.722,0,0,1,1.37-1.113,1.48,1.48,0,0,1,1.028.514.445.445,0,0,0,.343.171h0c.086,0,.257-.171.257-.428V2.227A3.683,3.683,0,0,0,3.943.171,3.883,3.883,0,0,0,1.545,1.2a4.547,4.547,0,0,0-1.37,4.71,7.92,7.92,0,0,0,5.738,5.824,14.781,14.781,0,0,0,3.254.428c3.6,0,7.365-1.542,11.134-4.625,3.768,3.083,7.451,4.625,11.134,4.625h0a13.555,13.555,0,0,0,3.254-.428,7.92,7.92,0,0,0,5.738-5.824A4.965,4.965,0,0,0,38.972,1.113Zm.6,4.625a7.109,7.109,0,0,1-5.139,5.224,12.738,12.738,0,0,1-3.083.428q-5.267,0-10.791-4.625a.428.428,0,0,0-.514,0c-3.683,3.083-7.365,4.625-10.791,4.625a12.738,12.738,0,0,1-3.083-.428A7.109,7.109,0,0,1,1.032,5.738,3.608,3.608,0,0,1,2.145,1.8a3.171,3.171,0,0,1,1.8-.771,2.429,2.429,0,0,1,1.113.343A2.459,2.459,0,0,0,3,3a2.384,2.384,0,0,0,.086,2.4A2.243,2.243,0,0,0,5.142,6.423a6.718,6.718,0,0,0,1.2-.171A7.921,7.921,0,0,0,9,4.282a10.659,10.659,0,0,1,5.652-3.254A9.537,9.537,0,0,1,16.1.856a3.909,3.909,0,0,1,3.768,2.227.471.471,0,0,0,.428.257h0a.471.471,0,0,0,.428-.257A3.664,3.664,0,0,1,24.412.856a9.537,9.537,0,0,1,1.456.171,11.239,11.239,0,0,1,5.652,3.254,7.273,7.273,0,0,0,2.655,1.884,3.121,3.121,0,0,0,1.2.171A2.338,2.338,0,0,0,37.43,5.31a2.626,2.626,0,0,0,.086-2.4A2.613,2.613,0,0,0,35.46,1.285,2.429,2.429,0,0,1,36.574.942a2.775,2.775,0,0,1,1.8.771A3.988,3.988,0,0,1,39.571,5.738Z" transform="translate(0.342 0.35)"/>
</svg>
