<svg xmlns="http://www.w3.org/2000/svg" viewBox="0 0 29.334 29.426">
  <defs>
    <style>
      .cls-1 {
        fill: #422912;
        stroke: #422912;
        stroke-width: 0.7px;
      }
    </style>
  </defs>
  <g id="Group_469" data-name="Group 469" transform="translate(0.35 0.35)">
    <path id="Path_4411" data-name="Path 4411" class="cls-1" d="M28.083,21.659H26.89V3.763h1.193a.592.592,0,0,0,.551-.551.592.592,0,0,0-.551-.551h-11.2V.551A.592.592,0,0,0,16.336,0h-4.13a.592.592,0,0,0-.551.551v2.2H.551A.592.592,0,0,0,0,3.3a.592.592,0,0,0,.551.551H1.744v17.9H.551a.551.551,0,1,0,0,1.1H12.573L9.545,27.9a.5.5,0,0,0,.184.734.337.337,0,0,0,.275.092.5.5,0,0,0,.459-.275l3.3-5.6v5.323a.551.551,0,0,0,1.1,0V22.852l3.3,5.6a.5.5,0,0,0,.459.275.337.337,0,0,0,.275-.092.5.5,0,0,0,.184-.734l-3.029-5.048H28.083a.592.592,0,0,0,.551-.551C28.542,21.934,28.359,21.659,28.083,21.659ZM12.757,1.01h3.12V2.753h-3.12Zm-10,2.753H25.789v17.9H2.753Z"/>
    <path id="Path_4412" data-name="Path 4412" class="cls-1" d="M23.05,6.788a.4.4,0,0,0-.459-.092L17.818,7.8a.522.522,0,0,0-.367.642c0,.275.275.367.551.367l3.029-.734L14.7,14.406l-1.1-2.019c-.092-.184-.184-.275-.367-.275s-.367,0-.459.184L5.888,19.178a.558.558,0,0,0,0,.734.7.7,0,0,0,.367.184.7.7,0,0,0,.367-.184l6.333-6.424,1.1,2.019c.092.184.184.275.367.275s.367,0,.459-.184l6.883-6.791-.642,3.029a.522.522,0,0,0,.367.642h.092a.42.42,0,0,0,.459-.367l1.01-4.772A.4.4,0,0,0,23.05,6.788Z" transform="translate(-0.473 -0.548)"/>
  </g>
</svg>
